%!PS-Adobe-3.0 EPSF-3.0
%%Creator: cairo 1.12.2 (http://cairographics.org)
%%CreationDate: Wed Oct 17 11:26:04 2012
%%Pages: 1
%%DocumentData: Clean7Bit
%%LanguageLevel: 2
%%BoundingBox: 0 -1 354 354
%%EndComments
%%BeginProlog
save
50 dict begin
/q { gsave } bind def
/Q { grestore } bind def
/cm { 6 array astore concat } bind def
/w { setlinewidth } bind def
/J { setlinecap } bind def
/j { setlinejoin } bind def
/M { setmiterlimit } bind def
/d { setdash } bind def
/m { moveto } bind def
/l { lineto } bind def
/c { curveto } bind def
/h { closepath } bind def
/re { exch dup neg 3 1 roll 5 3 roll moveto 0 rlineto
      0 exch rlineto 0 rlineto closepath } bind def
/S { stroke } bind def
/f { fill } bind def
/f* { eofill } bind def
/n { newpath } bind def
/W { clip } bind def
/W* { eoclip } bind def
/BT { } bind def
/ET { } bind def
/pdfmark where { pop globaldict /?pdfmark /exec load put }
    { globaldict begin /?pdfmark /pop load def /pdfmark
    /cleartomark load def end } ifelse
/BDC { mark 3 1 roll /BDC pdfmark } bind def
/EMC { mark /EMC pdfmark } bind def
/cairo_store_point { /cairo_point_y exch def /cairo_point_x exch def } def
/Tj { show currentpoint cairo_store_point } bind def
/TJ {
  {
    dup
    type /stringtype eq
    { show } { -0.001 mul 0 cairo_font_matrix dtransform rmoveto } ifelse
  } forall
  currentpoint cairo_store_point
} bind def
/cairo_selectfont { cairo_font_matrix aload pop pop pop 0 0 6 array astore
    cairo_font exch selectfont cairo_point_x cairo_point_y moveto } bind def
/Tf { pop /cairo_font exch def /cairo_font_matrix where
      { pop cairo_selectfont } if } bind def
/Td { matrix translate cairo_font_matrix matrix concatmatrix dup
      /cairo_font_matrix exch def dup 4 get exch 5 get cairo_store_point
      /cairo_font where { pop cairo_selectfont } if } bind def
/Tm { 2 copy 8 2 roll 6 array astore /cairo_font_matrix exch def
      cairo_store_point /cairo_font where { pop cairo_selectfont } if } bind def
/g { setgray } bind def
/rg { setrgbcolor } bind def
/d1 { setcachedevice } bind def
%%EndProlog
%%Page: 1 1
%%BeginPageSetup
%%PageBoundingBox: 0 -1 354 354
%%EndPageSetup
q 0 -1 354 355 rectclip q
1 g
332.77 94.055 m 291.332 92.09 l 301.609 51.898 l 261.434 62.23 l 259.406
 20.797 l 224.062 42.516 l 209.914 3.52 l 182.543 34.687 l 157.527 1.594
 l 140.559 39.449 l 106.898 15.199 l 101.84 56.371 l 62.531 43.121 l 69.836
 83.957 l 28.363 82.879 l 47.379 119.75 l 7.434 130.941 l 36.473 160.57 
l 1.602 183.039 l 38.082 202.793 l 11.383 234.543 l 52.066 242.664 l 35.91
 280.875 l 77.18 276.645 l 73.008 317.918 l 111.195 301.711 l 119.371 342.379
 l 151.086 315.637 l 170.887 352.09 l 193.309 317.187 l 222.977 346.184 
l 234.117 306.223 l 271.012 325.187 l 269.875 283.719 l 310.723 290.965 
l 297.414 251.672 l 338.582 246.555 l 314.285 212.934 l 352.113 195.91 l
 318.984 170.941 l 350.117 143.523 l 311.102 129.43 l h
f
0 g
3.2 w
0 J
1 j
[] 0.0 d
4 M q 1 0 0 -1 0 353.695282 cm
332.77 259.641 m 291.332 261.605 l 301.609 301.797 l 261.434 291.465 l 
259.406 332.898 l 224.062 311.18 l 209.914 350.176 l 182.543 319.008 l 157.527
 352.102 l 140.559 314.246 l 106.898 338.496 l 101.84 297.324 l 62.531 310.574
 l 69.836 269.738 l 28.363 270.816 l 47.379 233.945 l 7.434 222.754 l 36.473
 193.125 l 1.602 170.656 l 38.082 150.902 l 11.383 119.152 l 52.066 111.031
 l 35.91 72.82 l 77.18 77.051 l 73.008 35.777 l 111.195 51.984 l 119.371
 11.316 l 151.086 38.059 l 170.887 1.605 l 193.309 36.508 l 222.977 7.512
 l 234.117 47.473 l 271.012 28.508 l 269.875 69.977 l 310.723 62.73 l 297.414
 102.023 l 338.582 107.141 l 314.285 140.762 l 352.113 157.785 l 318.984
 182.754 l 350.117 210.172 l 311.102 224.266 l h
S Q
Q Q
showpage
%%Trailer
end restore
%%EOF
