digraph bibliographie {
    graph [fontname=Verdana, margin=0, center = true, start = 42]
    node[image="casadelreloj.eps", label="", shape=plaintext];
    edge[fontname=Verdana, len=1.2]
    1 -> 2 -> 3 -> 4 -> 5 -> 6;
    6 -> 3 -> 5 -> 2 -> 1 -> 4;
}
